Codear en R para RRHH
…
]

--

.pull-right[
¡Hay muchos productores de vino! 😨

```r
wine_ar %>% 
  summarise(n_winery = unique(winery))
```

```
## # A tibble: 455 x 1
##    n_winery          
##    <chr>             
##  1 Gaucho Andino     
##  2 Mendel            
##  3 Andean Sky        
##  4 Cueva de las Manos
##  5 Algodon           
##  6 Kaiken            
##  7 O. Fournier       
##  8 Sottano           
##  9 Viña Cobos        
## 10 Finca Sophenia    
## # ... with 445 more rows
```
…
